^C:\USERS\OLIVE\SOURCE\REPOS\CONSOLEE_E_G_DICTIONARY\CONSOLEE_E_G_DICTIONARY.CPP
/c /ZI /JMC /nologo /W3 /WX- /diagnostics:column /sdl /Od /Oy- /D WIN32 /D _DEBUG /D _CONSOLE /D _UNICODE /D UNICODE /Gm- /EHsc /RTC1 /MDd /GS /fp:precise /permissive- /Zc:wchar_t /Zc:forScope /Zc:inline /Fo"DEBUG\\" /Fd"DEBUG\VC142.PDB" /Gd /TP /analyze- /FC C:\USERS\OLIVE\SOURCE\REPOS\CONSOLEE_E_G_DICTIONARY\CONSOLEE_E_G_DICTIONARY.CPP
^C:\USERS\OLIVE\DESKTOP\CONSOLEE_E_G_DICTIONARY\CONSOLEE_E_G_DICTIONARY.CPP
/c /ZI /JMC /nologo /W3 /WX- /diagnostics:column /sdl /Od /Oy- /D WIN32 /D _DEBUG /D _CONSOLE /D _UNICODE /D UNICODE /Gm- /EHsc /RTC1 /MDd /GS /fp:precise /permissive- /Zc:wchar_t /Zc:forScope /Zc:inline /Fo"DEBUG\\" /Fd"DEBUG\VC142.PDB" /Gd /TP /analyze- /FC C:\USERS\OLIVE\DESKTOP\CONSOLEE_E_G_DICTIONARY\CONSOLEE_E_G_DICTIONARY.CPP
^C:\USERS\OLIVE\DESKTOP\CONSOLEE_E_G_DICTIONARY\DICTIONARY.CPP
/c /ZI /JMC /nologo /W3 /WX- /diagnostics:column /sdl /Od /Oy- /D WIN32 /D _DEBUG /D _CONSOLE /D _UNICODE /D UNICODE /Gm- /EHsc /RTC1 /MDd /GS /fp:precise /permissive- /Zc:wchar_t /Zc:forScope /Zc:inline /Fo"DEBUG\\" /Fd"DEBUG\VC142.PDB" /Gd /TP /analyze- /FC C:\USERS\OLIVE\DESKTOP\CONSOLEE_E_G_DICTIONARY\DICTIONARY.CPP
^D:\_PROGRAMMINGPROJECTS\CPP_PROJECTS\CONSOLEE_E_G_DICTIONARY\CONSOLEE_E_G_DICTIONARY.CPP
/c /ZI /JMC /nologo /W3 /WX- /diagnostics:column /sdl /Od /Oy- /D WIN32 /D _DEBUG /D _CONSOLE /D _UNICODE /D UNICODE /Gm- /EHsc /RTC1 /MDd /GS /fp:precise /permissive- /Zc:wchar_t /Zc:forScope /Zc:inline /Fo"DEBUG\\" /Fd"DEBUG\VC142.PDB" /Gd /TP /analyze- /FC D:\_PROGRAMMINGPROJECTS\CPP_PROJECTS\CONSOLEE_E_G_DICTIONARY\CONSOLEE_E_G_DICTIONARY.CPP
^D:\_PROGRAMMINGPROJECTS\CPP_PROJECTS\CONSOLEE_E_G_DICTIONARY\DICTIONARY.CPP
/c /ZI /JMC /nologo /W3 /WX- /diagnostics:column /sdl /Od /Oy- /D WIN32 /D _DEBUG /D _CONSOLE /D _UNICODE /D UNICODE /Gm- /EHsc /RTC1 /MDd /GS /fp:precise /permissive- /Zc:wchar_t /Zc:forScope /Zc:inline /Fo"DEBUG\\" /Fd"DEBUG\VC142.PDB" /Gd /TP /analyze- /FC D:\_PROGRAMMINGPROJECTS\CPP_PROJECTS\CONSOLEE_E_G_DICTIONARY\DICTIONARY.CPP
